[
    {
        "id":"motorola-xoom-with-wi-fi",
        "availability":[
            ""
        ],
        "images":[
            "img/phones/motorola-xoom-with-wi-fi.0.jpg",
            "img/phones/motorola-xoom-with-wi-fi.1.jpg",
            "img/phones/motorola-xoom-with-wi-fi.2.jpg",
            "img/phones/motorola-xoom-with-wi-fi.3.jpg",
            "img/phones/motorola-xoom-with-wi-fi.4.jpg",
            "img/phones/motorola-xoom-with-wi-fi.5.jpg"
        ],
        "age":0,
        "carrier":null,
        "imageUrl":"img/phones/motorola-xoom-with-wi-fi.0.jpg",
        "name":"Motorola XOOM™ with Wi-Fi",
        "snippet":"The Next, Next Generation\r\n\r\nExperience the future with Motorola XOOM with Wi-Fi, the world's first tablet powered by Android 3.0 (Honeycomb).",
        "additionalFeatures":"Sensors: proximity, ambient light, barometer, gyroscope",
        "android":{
            "id":"honeycomb3.0",
            "os":"Android 3.0",
            "ui":"Honeycomb"
        },
        "description":"Motorola XOOM with Wi-Fi has a super-powerful dual-core processor and Android™ 3.0 (Honeycomb) — the Android platform designed specifically for tablets. With its 10.1-inch HD widescreen display, you’ll enjoy HD video in a thin, light, powerful and upgradeable tablet."
    },
    {
        "id":"motorola-xoom",
        "availability":[
            "Verizon"
        ],
        "images":[
            "img/phones/motorola-xoom.0.jpg",
            "img/phones/motorola-xoom.1.jpg",
            "img/phones/motorola-xoom.2.jpg"
        ],
        "age":0,
        "carrier":null,
        "imageUrl":"img/phones/motorola-xoom.0.jpg",
        "name":"MOTOROLA XOOM™",
        "snippet":"The Next, Next Generation\n\nExperience the future with MOTOROLA XOOM, the world's first tablet powered by Android 3.0 (Honeycomb).",
        "additionalFeatures":"Front-facing camera. Sensors: proximity, ambient light, barometer, gyroscope.",
        "android":{
            "id":"android3.0",
            "os":"Android 3.0",
            "ui":"Android"
        },
        "description":"MOTOROLA XOOM has a super-powerful dual-core processor and Android™ 3.0 (Honeycomb) — the Android platform designed specifically for tablets. With its 10.1-inch HD widescreen display, you’ll enjoy HD video in a thin, light, powerful and upgradeable tablet."
    },
    {
        "id":"motorola-atrix-4g",
        "availability":[
            "AT&T"
        ],
        "images":[
            "img/phones/motorola-atrix-4g.0.jpg",
            "img/phones/motorola-atrix-4g.1.jpg",
            "img/phones/motorola-atrix-4g.2.jpg",
            "img/phones/motorola-atrix-4g.3.jpg"
        ],
        "age":0,
        "carrier":"AT&T",
        "imageUrl":"img/phones/motorola-atrix-4g.0.jpg",
        "name":"MOTOROLA ATRIX™ 4G",
        "snippet":"MOTOROLA ATRIX 4G the world's most powerful smartphone.",
        "additionalFeatures":"",
        "android":{
            "id":"motoblur2.2",
            "os":"Android 2.2",
            "ui":"MOTOBLUR™"
        },
        "description":"MOTOROLA ATRIX 4G gives you dual-core processing power and the revolutionary webtop application. With webtop and a compatible Motorola docking station, sold separately, you can surf the Internet with a full Firefox browser, create and edit docs, or access multimedia on a large screen almost anywhere."
    },
    {
        "id":"dell-streak-7",
        "availability":[
            "T-Mobile"
        ],
        "images":[
            "img/phones/dell-streak-7.0.jpg",
            "img/phones/dell-streak-7.1.jpg",
            "img/phones/dell-streak-7.2.jpg",
            "img/phones/dell-streak-7.3.jpg",
            "img/phones/dell-streak-7.4.jpg"
        ],
        "age":0,
        "carrier":null,
        "imageUrl":"img/phones/dell-streak-7.0.jpg",
        "name":"Dell Streak 7",
        "snippet":"Introducing Dell™ Streak 7. Share photos, videos and movies together. It’s small enough to carry around, big enough to gather around.",
        "additionalFeatures":"Front Facing 1.3MP Camera",
        "android":{
            "id":"dellstage2.2",
            "os":"Android 2.2",
            "ui":"Dell Stage"
        },
        "description":"Introducing Dell™ Streak 7. Share photos, videos and movies together. It’s small enough to carry around, big enough to gather around. Android™ 2.2-based tablet with over-the-air upgrade capability for future OS releases.  A vibrant 7-inch, multitouch display with full Adobe® Flash 10.1 pre-installed.  Includes a 1.3 MP front-facing camera for face-to-face chats on popular services such as Qik or Skype.  16 GB of internal storage, plus Wi-Fi, Bluetooth and built-in GPS keeps you in touch with the world around you.  Connect on your terms. Save with 2-year contract or flexibility with prepaid pay-as-you-go plans"
    },
    {
        "id":"samsung-gem",
        "availability":[
            "Cellular South"
        ],
        "images":[
            "img/phones/samsung-gem.0.jpg",
            "img/phones/samsung-gem.1.jpg",
            "img/phones/samsung-gem.2.jpg"
        ],
        "age":0,
        "carrier":"Cellular South",
        "imageUrl":"img/phones/samsung-gem.0.jpg",
        "name":"Samsung Gem™",
        "snippet":"The Samsung Gem™ brings you everything that you would expect and more from a touch display smart phone – more apps, more features and a more affordable price.",
        "additionalFeatures":"3.2” Full touch screen with Advanced anti smudge, anti reflective and anti scratch glass; Swype text input for easy and fast message creation; multiple messaging options, including text with threaded messaging for organized, easy-to-follow text; Social Community support, including Facebook and MySpace; Next generation Address book; Visual Voice Mail\n",
        "android":{
            "id":0,
            "os":"Android 2.1",
            "ui":"TouchWiz"
        },
        "description":"The Samsung Gem™ maps a route to a smarter mobile experience. By pairing one of the fastest processors in the category with the Android™ platform, the Gem delivers maximum multitasking speed and social networking capabilities to let you explore new territory online. A smart phone at an even smarter price is a real find, so uncover the Gem and discover what’s next."
    },
    {
        "id":"dell-venue",
        "availability":[
            "AT&T,",
            "KT,",
            "T-Mobile"
        ],
        "images":[
            "img/phones/dell-venue.0.jpg",
            "img/phones/dell-venue.1.jpg",
            "img/phones/dell-venue.2.jpg",
            "img/phones/dell-venue.3.jpg",
            "img/phones/dell-venue.4.jpg",
            "img/phones/dell-venue.5.jpg"
        ],
        "age":0,
        "carrier":"Dell",
        "imageUrl":"img/phones/dell-venue.0.jpg",
        "name":"Dell Venue",
        "snippet":"The Dell Venue; Your Personal Express Lane to Everything",
        "additionalFeatures":"Gorilla Glass display, Dedicated Camera Key, Ring Silence Switch, Swype keyboard.",
        "android":{
            "id":"dellstage2.2",
            "os":"Android 2.2",
            "ui":"Dell Stage"
        },
        "description":"The Venue is the perfect one-touch, Smart Phone providing instant access to everything you love. All of Venue's features make it perfect for on-the-go students, mobile professionals, and active social communicators who love style and performance.\n\nElegantly designed, the Venue offers a vibrant, curved glass display that’s perfect for viewing all types of content. The Venue’s slender form factor feels great in your hand and also slips easily into your pocket.  A mobile entertainment powerhouse that lets you download the latest tunes from Amazon MP3 or books from Kindle, watch video, or stream your favorite radio stations.  All on the go, anytime, anywhere."
    },
    {
        "id":"nexus-s",
        "availability":[
            "M1,",
            "O2,",
            "Orange,",
            "Singtel,",
            "StarHub,",
            "T-Mobile,",
            "Vodafone"
        ],
        "images":[
            "img/phones/nexus-s.0.jpg",
            "img/phones/nexus-s.1.jpg",
            "img/phones/nexus-s.2.jpg",
            "img/phones/nexus-s.3.jpg"
        ],
        "age":0,
        "carrier":"Best Buy",
        "imageUrl":"img/phones/nexus-s.0.jpg",
        "name":"Nexus S",
        "snippet":"Fast just got faster with Nexus S. A pure Google experience, Nexus S is the first phone to run Gingerbread (Android 2.3), the fastest version of Android yet.",
        "additionalFeatures":"Contour Display, Near Field Communications (NFC), Three-axis gyroscope, Anti-fingerprint display coating, Internet Calling support (VoIP/SIP)",
        "android":{
            "id":"android2.3",
            "os":"Android 2.3",
            "ui":"Android"
        },
        "description":"Nexus S is the next generation of Nexus devices, co-developed by Google and Samsung. The latest Android platform (Gingerbread), paired with a 1 GHz Hummingbird processor and 16GB of memory, makes Nexus S one of the fastest phones on the market. It comes pre-installed with the best of Google apps and enabled with new and popular features like true multi-tasking, Wi-Fi hotspot, Internet Calling, NFC support, and full web browsing. With this device, users will also be the first to receive software upgrades and new Google mobile apps as soon as they become available. For more details, visit http://www.google.com/nexus."
    },
    {
        "id":"lg-axis",
        "availability":[
            "Cellular South"
        ],
        "images":[
            "img/phones/lg-axis.0.jpg",
            "img/phones/lg-axis.1.jpg",
            "img/phones/lg-axis.2.jpg"
        ],
        "age":0,
        "carrier":"Cellular South",
        "imageUrl":"img/phones/lg-axis.0.jpg",
        "name":"LG Axis",
        "snippet":"Android Powered, Google Maps Navigation, 5 Customizable Home Screens",
        "additionalFeatures":"Accessibility features: Tactile QWERTY keyboard, four-direction keypad, start and end call buttons, dedicated number keys, camera button, TalkBack screen reader",
        "android":{
            "id":0,
            "os":"Android 2.1",
            "ui":"LG Home"
        },
        "description":"Android plus QWERTY is a powerful duo. LG Axis melds a speedy UI with the limitless micro-entertainment of 80,000+ apps including voice-activated Google. Feel the tactile vibration on its tempered glass touchscreen. Take the fuzziness out of your fun with a 3.2MP camera that does 360° panoramics. And customize your home screens with shortcuts to your apps, favorites, and widgets. It's the centerpiece of your life."
    },
    {
        "id":"samsung-galaxy-tab",
        "availability":[
            "AT&T,",
            "Sprint,",
            "T-Mobile,",
            "Verizon"
        ],
        "images":[
            "img/phones/samsung-galaxy-tab.0.jpg",
            "img/phones/samsung-galaxy-tab.1.jpg",
            "img/phones/samsung-galaxy-tab.2.jpg",
            "img/phones/samsung-galaxy-tab.3.jpg",
            "img/phones/samsung-galaxy-tab.4.jpg",
            "img/phones/samsung-galaxy-tab.5.jpg",
            "img/phones/samsung-galaxy-tab.6.jpg"
        ],
        "age":0,
        "carrier":null,
        "imageUrl":"img/phones/samsung-galaxy-tab.0.jpg",
        "name":"Samsung Galaxy Tab™",
        "snippet":"Feel Free to Tab™. The Samsung Galaxy Tab™ brings you an ultra-mobile entertainment experience through its 7” display, high-power processor and Adobe® Flash® Player compatibility.",
        "additionalFeatures":"Adobe® Flash® Player compatible; 1.3MP front-facing camera for video chat; eReader pre-loaded; Swype text input technology\r\n",
        "android":{
            "id":"touchwiz2.2",
            "os":"Android 2.2",
            "ui":"TouchWiz"
        },
        "description":"Feel Free to Tab™. The Samsung Galaxy Tab™, the tablet device that delivers enhanced capabilities with advanced mobility, has a large, perfectly sized, 7.0\" screen that offers plenty of room for the thousands of interactive games and apps available for the Android™ platform, and its slim design makes it perfect for travel and one-handed grip. Use the Galaxy Tab to relax and enjoy an e-book, watch rich video or full web content with its Adobe® Flash® Player compatibility, video chat using the front-facing camera, or send user-generated content wirelessly to other devices like your TV via AllShare™.  With so many options for customization and interactivity, the Galaxy Tab gives you everything you want, anywhere you go…Feel Free to Tab™."
    },
    {
        "id":"samsung-showcase-a-galaxy-s-phone",
        "availability":[
            "Cellular South"
        ],
        "images":[
            "img/phones/samsung-showcase-a-galaxy-s-phone.0.jpg",
            "img/phones/samsung-showcase-a-galaxy-s-phone.1.jpg",
            "img/phones/samsung-showcase-a-galaxy-s-phone.2.jpg"
        ],
        "age":0,
        "carrier":"Cellular South",
        "imageUrl":"img/phones/samsung-showcase-a-galaxy-s-phone.0.jpg",
        "name":"Samsung Showcase™ a Galaxy S™ phone",
        "snippet":"The Samsung Showcase™ delivers a cinema quality experience like you’ve never seen before. Its innovative 4” touch display technology provides rich picture brilliance, even outdoors",
        "additionalFeatures":"Swype",
        "android":{
            "id":"touchwiz2.1",
            "os":"Android 2.1",
            "ui":"TouchWiz"
        },
        "description":"Experience entertainment in a whole new light. The stylish and slim Samsung Showcase™, with its vivid 4-inch Super AMOLED™ display, makes everything from Hollywood blockbusters to music videos to Amazon’s bestsellers look absolutely brilliant – even outside in the sun. Android™ Market rockets you into a universe filled with equally brilliant apps; download them at blistering speeds thanks to the powerful 1GHz Hummingbird processor. Keep your social life organized and continuously updated with the pre-loaded social networking apps, while uploading all the 5.0MP pics you’ve snapped and 720p HD videos you’ve recorded"
    },
    {
        "id":"droid-2-global-by-motorola",
        "availability":[
            "Verizon"
        ],
        "images":[
            "img/phones/droid-2-global-by-motorola.0.jpg",
            "img/phones/droid-2-global-by-motorola.1.jpg",
            "img/phones/droid-2-global-by-motorola.2.jpg"
        ],
        "age":0,
        "carrier":"Verizon",
        "imageUrl":"img/phones/droid-2-global-by-motorola.0.jpg",
        "name":"DROID™ 2 Global by Motorola",
        "snippet":"The first smartphone with a 1.2 GHz processor and global capabilities.",
        "additionalFeatures":"Adobe Flash Player 10, Quadband GSM Worldphone, Advance Business Security, Complex Password Secure, Review & Edit Documents with Quick Office, Personal 3G Mobile Hotspot for up to 5 WiFi enabled Devices, Advanced Social Networking brings all social content into a single homescreen widget",
        "android":{
            "id":"android2.2",
            "os":"Android 2.2",
            "ui":""
        },
        "description":"With Quad Band GSM, the DROID 2 Global can send email and make and receive calls from more than 200 countries. It features an improved QWERTY keyboard, super-fast 1.2 GHz processor and enhanced security for all your business needs."
    }
]